%YAML 1.1
%TAG !u! tag:unity3d.com,2011:
--- !u!21 &2100000
Material:
  serializedVersion: 6
  m_ObjectHideFlags: 0
  m_PrefabParentObject: {fileID: 0}
  m_PrefabInternal: {fileID: 0}
  m_Name: ElevatorDoor
  m_Shader: {fileID: 23, guid: 0000000000000000f000000000000000, type: 0}
  m_ShaderKeywords: 
  m_LightmapFlags: 5
  m_CustomRenderQueue: -1
  stringTagMap: {}
  m_SavedProperties:
    serializedVersion: 2
    m_TexEnvs:
      data:
        first:
          name: _MainTex
        second:
          m_Texture: {fileID: 2800000, guid: 039aa88827e86944c9167a880f0b8577, type: 3}
          m_Scale: {x: 1, y: 1}
          m_Offset: {x: 0, y: 0}
      data:
        first:
          name: _BumpMap
        second:
          m_Texture: {fileID: 2800000, guid: 711ca34205a09cd4db611d036ac9ea8f, type: 3}
          m_Scale: {x: 1, y: 1}
          m_Offset: {x: 0, y: 0}
      data:
        first:
          name: _Cube
        second:
          m_Texture: {fileID: 8900000, guid: d651f48b942fda943bebfa247fefa236, type: 2}
          m_Scale: {x: 1, y: 1}
          m_Offset: {x: 0, y: 0}
      data:
        first:
          name: _Diffuse
        second:
          m_Texture: {fileID: 2800000, guid: 039aa88827e86944c9167a880f0b8577, type: 3}
          m_Scale: {x: 1, y: 1}
          m_Offset: {x: 0, y: 0}
      data:
        first:
          name: _ReflectionCube
        second:
          m_Texture: {fileID: 8900000, guid: d651f48b942fda943bebfa247fefa236, type: 2}
          m_Scale: {x: 1, y: 1}
          m_Offset: {x: 0, y: 0}
      data:
        first:
          name: _Normal
        second:
          m_Texture: {fileID: 2800000, guid: 711ca34205a09cd4db611d036ac9ea8f, type: 3}
          m_Scale: {x: 1, y: 1}
          m_Offset: {x: 0, y: 0}
      data:
        first:
          name: _ReflectionMask
        second:
          m_Texture: {fileID: 2800000, guid: 2a245903fee87104ea96632d64d54c46, type: 3}
          m_Scale: {x: 1, y: 1}
          m_Offset: {x: 0, y: 0}
      data:
        first:
          name: _Specular
        second:
          m_Texture: {fileID: 0}
          m_Scale: {x: 1, y: 1}
          m_Offset: {x: 0, y: 0}
    m_Floats:
      data:
        first:
          name: _Shininess
        second: 1
      data:
        first:
          name: _Glossiness
        second: .430051804
      data:
        first:
          name: _ReflectionMaskPower
        second: 1
      data:
        first:
          name: _ReflectionBaseStrength
        second: .631147563
      data:
        first:
          name: _RimPower
        second: 1.70777202
      data:
        first:
          name: _ReflectionStrength
        second: .5
      data:
        first:
          name: _NormalMapPower
        second: 1
    m_Colors:
      data:
        first:
          name: _Color
        second: {r: .816176474, g: .816176474, b: .816176474, a: 1}
      data:
        first:
          name: _SpecColor
        second: {r: .492647052, g: .492647052, b: .492647052, a: 1}
      data:
        first:
          name: _ReflectColor
        second: {r: .235294104, g: .235294104, b: .235294104, a: .501960814}
      data:
        first:
          name: _SpecularColor
        second: {r: .647058845, g: .647058845, b: .647058845, a: 1}
      data:
        first:
          name: _RimColor
        second: {r: 1, g: 1, b: 1, a: 1}
