%YAML 1.1
%TAG !u! tag:unity3d.com,2011:
--- !u!1 &100000
GameObject:
  m_ObjectHideFlags: 0
  m_PrefabParentObject: {fileID: 0}
  m_PrefabInternal: {fileID: 100100000}
  serializedVersion: 4
  m_Component:
  - 4: {fileID: 400000}
  - 33: {fileID: 3300000}
  - 65: {fileID: 6500000}
  - 23: {fileID: 2300000}
  - 114: {fileID: 11400004}
  - 54: {fileID: 5400000}
  - 82: {fileID: 8200000}
  - 114: {fileID: 11400006}
  - 114: {fileID: 11400000}
  m_Layer: 21
  m_Name: ThrownBomb
  m_TagString: Untagged
  m_Icon: {fileID: 0}
  m_NavMeshLayer: 0
  m_StaticEditorFlags: 0
  m_IsActive: 1
--- !u!4 &400000
Transform:
  m_ObjectHideFlags: 1
  m_PrefabParentObject: {fileID: 0}
  m_PrefabInternal: {fileID: 100100000}
  m_GameObject: {fileID: 100000}
  m_LocalRotation: {x: 0, y: -.425684452, z: 0, w: .904871702}
  m_LocalPosition: {x: 133.417633, y: 109.919304, z: -93.6516571}
  m_LocalScale: {x: .37302196, y: .373021901, z: .37302196}
  m_Children: []
  m_Father: {fileID: 0}
  m_RootOrder: 0
--- !u!23 &2300000
MeshRenderer:
  m_ObjectHideFlags: 1
  m_PrefabParentObject: {fileID: 0}
  m_PrefabInternal: {fileID: 100100000}
  m_GameObject: {fileID: 100000}
  m_Enabled: 1
  m_CastShadows: 1
  m_ReceiveShadows: 1
  m_Materials:
  - {fileID: 2100000, guid: c9ec4514459ea4147a3001bba410a66e, type: 2}
  m_SubsetIndices: 
  m_StaticBatchRoot: {fileID: 0}
  m_UseLightProbes: 0
  m_ReflectionProbeUsage: 1
  m_ProbeAnchor: {fileID: 0}
  m_ScaleInLightmap: 1
  m_PreserveUVs: 0
  m_ImportantGI: 0
  m_AutoUVMaxDistance: .5
  m_AutoUVMaxAngle: 89
  m_LightmapParameters: {fileID: 0}
  m_SortingLayerID: 0
  m_SortingOrder: 0
--- !u!33 &3300000
MeshFilter:
  m_ObjectHideFlags: 1
  m_PrefabParentObject: {fileID: 0}
  m_PrefabInternal: {fileID: 100100000}
  m_GameObject: {fileID: 100000}
  m_Mesh: {fileID: 4300000, guid: f13ac3eb17e5fe8469ab16ee63e7baf1, type: 3}
--- !u!54 &5400000
Rigidbody:
  m_ObjectHideFlags: 1
  m_PrefabParentObject: {fileID: 0}
  m_PrefabInternal: {fileID: 100100000}
  m_GameObject: {fileID: 100000}
  serializedVersion: 2
  m_Mass: 1
  m_Drag: 0
  m_AngularDrag: .0500000007
  m_UseGravity: 1
  m_IsKinematic: 0
  m_Interpolate: 0
  m_Constraints: 0
  m_CollisionDetection: 0
--- !u!65 &6500000
BoxCollider:
  m_ObjectHideFlags: 1
  m_PrefabParentObject: {fileID: 0}
  m_PrefabInternal: {fileID: 100100000}
  m_GameObject: {fileID: 100000}
  m_Material: {fileID: 0}
  m_IsTrigger: 0
  m_Enabled: 1
  serializedVersion: 2
  m_Size: {x: 1.02999997, y: 1.02999997, z: 1.02999997}
  m_Center: {x: 0, y: 0, z: 0}
--- !u!82 &8200000
AudioSource:
  m_ObjectHideFlags: 1
  m_PrefabParentObject: {fileID: 0}
  m_PrefabInternal: {fileID: 100100000}
  m_GameObject: {fileID: 100000}
  m_Enabled: 1
  serializedVersion: 4
  OutputAudioMixerGroup: {fileID: 0}
  m_audioClip: {fileID: 0}
  m_PlayOnAwake: 1
  m_Volume: 1
  m_Pitch: 1
  Loop: 0
  Mute: 0
  Priority: 128
  DopplerLevel: 1
  MinDistance: 1
  MaxDistance: 500
  Pan2D: 0
  rolloffMode: 0
  BypassEffects: 0
  BypassListenerEffects: 0
  BypassReverbZones: 0
  rolloffCustomCurve:
    serializedVersion: 2
    m_Curve:
    - time: 0
      value: 1
      inSlope: 0
      outSlope: 0
      tangentMode: 0
    - time: 1
      value: 0
      inSlope: 0
      outSlope: 0
      tangentMode: 0
    m_PreInfinity: 2
    m_PostInfinity: 2
  panLevelCustomCurve:
    serializedVersion: 2
    m_Curve:
    - time: 0
      value: 1
      inSlope: 0
      outSlope: 0
      tangentMode: 0
    m_PreInfinity: 2
    m_PostInfinity: 2
  spreadCustomCurve:
    serializedVersion: 2
    m_Curve:
    - time: 0
      value: 0
      inSlope: 0
      outSlope: 0
      tangentMode: 0
    m_PreInfinity: 2
    m_PostInfinity: 2
  reverbZoneMixCustomCurve:
    serializedVersion: 2
    m_Curve:
    - time: 0
      value: 1
      inSlope: 0
      outSlope: 0
      tangentMode: 0
    m_PreInfinity: 2
    m_PostInfinity: 2
--- !u!114 &11400000
MonoBehaviour:
  m_ObjectHideFlags: 1
  m_PrefabParentObject: {fileID: 0}
  m_PrefabInternal: {fileID: 100100000}
  m_GameObject: {fileID: 100000}
  m_Enabled: 1
  m_EditorHideFlags: 0
  m_Script: {fileID: 11500000, guid: 29bf09a14bfd0c849a72b3a3bbb0a47d, type: 3}
  m_Name: 
  m_EditorClassIdentifier: 
  m_SpawnMode: 0
  SpawnPointTag: 
  m_ObstructionSolver: 0
  ObstructionRadius: .5
  MinRespawnTime: 3
  MaxRespawnTime: 8
  LastRespawnTime: 0
  SpawnOnAwake: 0
  SpawnSound: {fileID: 8300000, guid: c6ffb5ccbd00a114494143e33e747a05, type: 3}
  SpawnFXPrefabs: []
  helpbox: 221
--- !u!114 &11400004
MonoBehaviour:
  m_ObjectHideFlags: 1
  m_PrefabParentObject: {fileID: 0}
  m_PrefabInternal: {fileID: 100100000}
  m_GameObject: {fileID: 100000}
  m_Enabled: 1
  m_EditorHideFlags: 0
  m_Script: {fileID: 11500000, guid: afa96b0804ec29f49bc171fae6aa9b5d, type: 3}
  m_Name: 
  m_EditorClassIdentifier: 
  MaxHealth: 5
  DeathSpawnObjects:
  - {fileID: 100000, guid: 14821a40ced952b458979a69fd08fd9c, type: 2}
  MinDeathDelay: 0
  MaxDeathDelay: .5
  CurrentHealth: 0
  DeathSound: {fileID: 0}
  ImpactDamageThreshold: 3
  ImpactDamageMultiplier: 1
  Respawns: 0
  MinRespawnTime: -99999
  MaxRespawnTime: -99999
  RespawnCheckRadius: -99999
  RespawnSound: {fileID: 0}
  DeathEffect: {fileID: 0}
  helpbox: 139
--- !u!114 &11400006
MonoBehaviour:
  m_ObjectHideFlags: 1
  m_PrefabParentObject: {fileID: 0}
  m_PrefabInternal: {fileID: 100100000}
  m_GameObject: {fileID: 100000}
  m_Enabled: 1
  m_EditorHideFlags: 0
  m_Script: {fileID: 11500000, guid: cc09af4ea1796d64e9b8b44666c1330f, type: 3}
  m_Name: 
  m_EditorClassIdentifier: 
  InteractType: 0
  RecipientTags: []
  InteractDistance: 0
  m_InteractCrosshair: {fileID: 2800000, guid: a999b7b2f6a1c4dc1871fb2ab065f806, type: 3}
  InteractText: Press F to Grab
  DelayShowingText: 2
  OnGrabText: 'Press F to Drop

    Press Fire to Throw'
  GrabStateCrosshair: {fileID: 0}
  FootstepForce: .0149999997
  Kneeling: 0
  Stiffness: 2
  ShakeSpeed: .0500000007
  ShakeAmplitude: {x: 1, y: 1, z: 1}
  ThrowStrength: 10
  AllowThrowRotation: 1
  Burden: 0
  MaxCollisionCount: 20
  CarryingOffset: {x: .25, y: -1.20000005, z: .899999976}
  CameraPitchDownLimit: -30
  SoundsPitch: {x: 1, y: 1.5}
  GrabSounds:
  - {fileID: 8300000, guid: 99482ac48e3acbd478c5c7d5ce6a3241, type: 3}
  DropSounds:
  - {fileID: 8300000, guid: 99482ac48e3acbd478c5c7d5ce6a3241, type: 3}
  ThrowSounds:
  - {fileID: 8300000, guid: 8cd7742bec7548348bdc9d18a33b2bbf, type: 3}
--- !u!1001 &100100000
Prefab:
  m_ObjectHideFlags: 1
  serializedVersion: 2
  m_Modification:
    m_TransformParent: {fileID: 0}
    m_Modifications: []
    m_RemovedComponents: []
  m_ParentPrefab: {fileID: 0}
  m_RootGameObject: {fileID: 100000}
  m_IsPrefabParent: 1
