%YAML 1.1
%TAG !u! tag:unity3d.com,2011:
--- !u!21 &2100000
Material:
  serializedVersion: 6
  m_ObjectHideFlags: 0
  m_PrefabParentObject: {fileID: 0}
  m_PrefabInternal: {fileID: 0}
  m_Name: MA_ShellBox01
  m_Shader: {fileID: 23, guid: 0000000000000000f000000000000000, type: 0}
  m_ShaderKeywords: 
  m_LightmapFlags: 5
  m_CustomRenderQueue: -1
  stringTagMap: {}
  m_SavedProperties:
    serializedVersion: 2
    m_TexEnvs:
      data:
        first:
          name: _MainTex
        second:
          m_Texture: {fileID: 2800000, guid: 0e4dbe4226d3d4b4fb2372ab1ccec24d, type: 3}
          m_Scale: {x: 1, y: 1}
          m_Offset: {x: 0, y: 0}
      data:
        first:
          name: _BumpMap
        second:
          m_Texture: {fileID: 2800000, guid: 5672953138073415888ddf00ad6b2822, type: 3}
          m_Scale: {x: 1, y: 1}
          m_Offset: {x: 0, y: 0}
      data:
        first:
          name: _Cube
        second:
          m_Texture: {fileID: 8900000, guid: 8844034a4d4104cc29795f40ba2e9fcc, type: 2}
          m_Scale: {x: 1, y: 1}
          m_Offset: {x: 0, y: 0}
      data:
        first:
          name: _SpecMap
        second:
          m_Texture: {fileID: 2800000, guid: 9605a9151b6d3ab448fe4fb7f6bc610e, type: 3}
          m_Scale: {x: 1, y: 1}
          m_Offset: {x: 0, y: 0}
    m_Floats:
      data:
        first:
          name: _Shininess
        second: .468452454
    m_Colors:
      data:
        first:
          name: _Reflection
        second: {r: .39028734, g: .441063374, b: .544776082, a: 1}
      data:
        first:
          name: _Color
        second: {r: .882352948, g: .856401384, b: .856401384, a: 1}
      data:
        first:
          name: _SpecColor
        second: {r: .522058845, g: .497173697, b: .483672172, a: 1}
      data:
        first:
          name: _ReflectColor
        second: {r: .279411793, g: .250082046, b: .242430821, a: .501960814}
